<?xml version="1.0" encoding="iso-8859-1"?>
<!-- Generator: Adobe Illustrator 19.0.0, SVG Export Plug-In . SVG Version: 6.00 Build 0)  -->
<svg version="1.1" id="Capa_1" xmlns="http://www.w3.org/2000/svg" xmlns:xlink="http://www.w3.org/1999/xlink" x="0px" y="0px"
	 viewBox="0 0 384.133 384.133" style="enable-background:new 0 0 384.133 384.133;" xml:space="preserve">
<g>
	<g>
		<path d="M352.961,43.059c-0.436-4.397-4.353-7.608-8.75-7.172c-0.673,0.067-1.335,0.219-1.97,0.452
			c-17.174,6.572-35.373,10.066-53.76,10.32c-35.066,0.575-68.354-15.402-89.84-43.12c-2.464-3.667-7.435-4.642-11.102-2.178
			c-0.86,0.578-1.6,1.318-2.178,2.178c-21.606,27.579-54.807,43.544-89.84,43.2c-18.387-0.254-36.586-3.748-53.76-10.32
			c-4.147-1.524-8.744,0.603-10.268,4.75c-0.233,0.635-0.385,1.297-0.452,1.97c0,2.8-26.48,277.2,158.4,340.56
			c1.685,0.579,3.515,0.579,5.2,0C379.441,320.019,353.281,45.779,352.961,43.059z M192.001,367.539
			c-150.8-54-148.4-264-145.76-312.8c15.931,5.13,32.544,7.827,49.28,8c36.681,0.334,71.768-14.97,96.48-42.08
			c24.72,27.089,59.809,42.364,96.48,42c16.735-0.174,33.349-2.871,49.28-8C340.401,103.459,342.801,313.539,192.001,367.539z"/>
	</g>
</g>
<g>
	<g>
		<path d="M308.161,86.739c-0.265-2.641-1.824-4.979-4.16-6.24c-2.086-1.296-4.652-1.561-6.96-0.72
			c-11.885,4.541-24.478,6.951-37.2,7.12c-23.989,0.379-46.766-10.52-61.52-29.44c-1.474-2.181-3.927-3.498-6.56-3.52
			c-2.646-0.022-5.132,1.266-6.64,3.44c-14.754,18.972-37.569,29.906-61.6,29.52c-12.6-0.129-25.081-2.457-36.88-6.88
			c-4.147-1.524-8.744,0.603-10.268,4.75c-0.233,0.635-0.385,1.297-0.452,1.97c-0.8,8-18.96,197.76,113.52,243.12
			c1.685,0.579,3.515,0.579,5.2,0C327.041,284.499,308.961,94.819,308.161,86.739z M192.001,313.539
			c-101.44-37.04-102.56-176.72-100.8-215.44c10.602,3.116,21.589,4.732,32.64,4.8c25.676,0.232,50.319-10.094,68.16-28.56
			c17.841,18.466,42.484,28.792,68.16,28.56c11.051-0.068,22.038-1.684,32.64-4.8C294.561,136.819,293.441,276.499,192.001,313.539z
			"/>
	</g>
</g>
<g>
</g>
<g>
</g>
<g>
</g>
<g>
</g>
<g>
</g>
<g>
</g>
<g>
</g>
<g>
</g>
<g>
</g>
<g>
</g>
<g>
</g>
<g>
</g>
<g>
</g>
<g>
</g>
<g>
</g>
</svg>
